{
  "project_name": "toolbox-cookiecutter",
  "base_image_name": "cookiecutter/cookiecutter",
  "image_name": "toolbox-cookiecutter",
  "repository": "mswinson",
  "fq_image_name": "mswinson/toolbox-cookiecutter",
  "image_tag": "0.1.0"
}

